Capstone Project v1
…
# Round up values in Income_per_person column to 2 decimal places
# round(income_pp_year_as_row$Income_per_person, 2)

# Show the mean of GDP per capita of each country from 1960 to 2011
paste("The Mean of Income Per Person(GDP Per Capita) By Country from 1960 to 2011")

## [1] "The Mean of Income Per Person(GDP Per Capita) By Country from 1960 to 2011"

income_pp_year_as_row %>% 
  group_by(Country) %>% 
  summarise(mean=mean(Income_per_person, na.rm = TRUE), count=sum(!is.na(Income_per_person))) %>%
  arrange(desc(mean))

## # A tibble: 273 x 3
##                 Country     mean count
##                   <chr>    <dbl> <int>
##  1               Monaco 70333.95    40
##  2        Liechtenstein 52333.93    40
##  3      Channel Islands 42452.84    10
##  4              Bermuda 42151.23    51
##  5 United Arab Emirates 38226.28    37
##  6          Switzerland 33972.23    32
##  7                Qatar 31936.12    12
##  8           Luxembourg 30245.72    52
##  9                Japan 27092.34    52
## 10        United States 26124.80    52
## # ... with 263 more rows
…
# Show the mean of life expectancy at birth by year of each country from 1960 to 2016
paste("The Mean of Life Expectancy at Birth (Year) By Country from 1960 to 2016")

## [1] "The Mean of Life Expectancy at Birth (Year) By Country from 1960 to 2016"

life_expectancy_year_as_row %>% 
  group_by(Country) %>% 
  summarise(mean=mean(Life_Expectancy, na.rm = TRUE), count=sum(!is.na(Life_Expectancy))) %>%
  arrange(desc(mean))

## # A tibble: 273 x 3
##             Country     mean count
##               <chr>    <dbl> <int>
##  1          Andorra 83.73704    27
##  2            land 80.13900    10
##  3          Iceland 78.16579    57
##  4           Sweden 77.52105    57
##  5            Japan 77.51193    57
##  6      Switzerland 77.37000    57
##  7           Norway 77.11491    57
##  8      Netherlands 76.83947    57
##  9 Hong Kong, China 76.80456    57
## 10           Canada 76.62211    57
## # ... with 263 more rows
…
# Show the mean of total health spending in US$ of each country from 1995 to 2010
paste("The Mean of Total Health Spending in US$ By Country from 1995 to 2010")

## [1] "The Mean of Total Health Spending in US$ By Country from 1995 to 2010"

total_health_spending_pp_year_as_row %>% 
  group_by(Country) %>% 
  summarise(mean=mean(Total_Health_Spending_Per_Person, na.rm = TRUE), count=sum(!is.na(Total_Health_Spending_Per_Person))) %>%
  arrange(desc(mean))

## # A tibble: 273 x 3
##          Country     mean count
##            <chr>    <dbl> <int>
##  1 United States 5822.540    16
##  2    Luxembourg 5074.237    16
##  3   Switzerland 5056.524    16
##  4        Norway 5000.034    16
##  5       Denmark 4059.769    16
##  6        Monaco 4058.927    16
##  7       Iceland 3728.703    16
##  8       Austria 3457.336    16
##  9       Germany 3387.728    16
## 10        France 3328.015    16
## # ... with 263 more rows
…
# Show the mean of government health spending in US$ of each country from 1995 to 2010
paste("The Mean of Government Health Spending in US$ By Country from 1995 to 2010")

## [1] "The Mean of Government Health Spending in US$ By Country from 1995 to 2010"

government_health_spending_pp_year_as_row %>% 
  group_by(Country) %>% 
  summarise(mean=mean(Government_Health_Spending_Per_Person, na.rm = TRUE), count=sum(!is.na(Government_Health_Spending_Per_Person))) %>%
  arrange(desc(mean))

## # A tibble: 273 x 3
##          Country     mean count
##            <chr>    <dbl> <int>
##  1    Luxembourg 4352.106    16
##  2        Norway 4166.522    16
##  3        Monaco 3572.475    16
##  4       Denmark 3420.010    16
##  5       Iceland 3070.647    16
##  6   Switzerland 2916.239    16
##  7        Sweden 2686.923    16
##  8       Germany 2649.782    16
##  9 United States 2646.179    16
## 10       Austria 2634.853    16
## # ... with 263 more rows
…
# Show the mean of breast cancer deaths per 100,000 female of each country from 1950 to 2002
paste("The Mean of Breast Cancer Deaths Per 100,000 Female By Country from 1950 to 2002")

## [1] "The Mean of Breast Cancer Deaths Per 100,000 Female By Country from 1950 to 2002"

breast_cancer_death_year_as_row %>% 
  group_by(Country) %>% 
  summarise(mean=mean(Breast_Cancer_Death, na.rm = TRUE), count=sum(!is.na(Breast_Cancer_Death))) %>%
  arrange(desc(mean))

## # A tibble: 273 x 3
##           Country     mean count
##             <chr>    <dbl> <int>
##  1         Cyprus 29.60000     1
##  2        Belgium 27.70000     1
##  3    Philippines 27.10000     1
##  4          Malta 26.55784    37
##  5        Denmark 25.82000    52
##  6 United Kingdom 25.57566    53
##  7    Netherlands 25.51830    53
##  8        Georgia 25.10000     1
##  9       Botswana 25.00000     1
## 10         Israel 23.96214    28
## # ... with 263 more rows
…
# Show the mean of cervical cancer deaths per 100,000 female of each country from 1950 to 2002
paste("The Mean of Cervical Cancer Deaths Per 100,000 Female By Country from 1950 to 2002")

## [1] "The Mean of Cervical Cancer Deaths Per 100,000 Female By Country from 1950 to 2002"

cervical_cancer_death_year_as_row %>% 
  group_by(Country) %>% 
  summarise(mean=mean(Cervical_Cancer_Death, na.rm = TRUE), count=sum(!is.na(Cervical_Cancer_Death))) %>%
  arrange(desc(mean))

## # A tibble: 273 x 3
##      Country  mean count
##        <chr> <dbl> <int>
##  1  Tanzania  55.6     1
##  2   Lesotho  50.3     1
##  3     Haiti  48.1     1
##  4 Swaziland  47.6     1
##  5    Zambia  44.0     1
##  6  Zimbabwe  43.1     1
##  7    Guinea  40.5     1
##  8    Rwanda  40.4     1
##  9    Malawi  37.4     1
## 10   Burundi  34.6     1
## # ... with 263 more rows
…
# Show the mean of liver cancer deaths per 100,000 male of each country from 1955 to 2002
paste("The Mean of Liver Cancer Deaths Per 100,000 Male By Country from 1955 to 2002")

## [1] "The Mean of Liver Cancer Deaths Per 100,000 Male By Country from 1955 to 2002"

liver_cancer_death_male_year_as_row %>% 
  group_by(Country) %>% 
  summarise(mean=mean(Liver_Cancer_Death_Male, na.rm = TRUE), count=sum(!is.na(Liver_Cancer_Death_Male))) %>%
  arrange(desc(mean))

## # A tibble: 273 x 3
##             Country  mean count
##               <chr> <dbl> <int>
##  1         Mongolia  93.3     1
##  2       Mozambique  78.4     1
##  3           Gambia  44.8     1
##  4           Rwanda  44.7     1
##  5         Cameroon  40.7     1
##  6           Guinea  36.0     1
##  7      North Korea  35.9     1
##  8            China  35.3     1
##  9          Senegal  30.3     1
## 10 Congo, Dem. Rep.  29.6     1
## # ... with 263 more rows
…
# Show the mean of liver cancer deaths per 100,000 female of each country from 1955 to 2002
paste("The Mean of Liver Cancer Deaths Per 100,000 Female By Country from 1955 to 2002")

## [1] "The Mean of Liver Cancer Deaths Per 100,000 Female By Country from 1955 to 2002"

liver_cancer_death_female_year_as_row %>% 
  group_by(Country) %>% 
  summarise(mean=mean(Liver_Cancer_Death_Female, na.rm = TRUE), count=sum(!is.na(Liver_Cancer_Death_Female))) %>%
  arrange(desc(mean))

## # A tibble: 273 x 3
##                     Country  mean count
##                       <chr> <dbl> <int>
##  1                 Mongolia  47.3     1
##  2               Mozambique  41.8     1
##  3                   Rwanda  19.1     1
##  4                   Gambia  16.6     1
##  5         Congo, Dem. Rep.  16.4     1
##  6                  Senegal  13.6     1
##  7                    China  13.3     1
##  8 Central African Republic  13.2     1
##  9                     Chad  13.2     1
## 10        Equatorial Guinea  13.2     1
## # ... with 263 more rows
…
# Print liver_cancer_death_year_as_row
# liver_cancer_death_year_as_row

# Show the mean of liver cancer deaths per 100,000 person of each country from 1955 to 2002
paste("The Mean of Liver Cancer Deaths Per 100,000 Person By Country from 1955 to 2002")

## [1] "The Mean of Liver Cancer Deaths Per 100,000 Person By Country from 1955 to 2002"

liver_cancer_death_year_as_row %>% 
  group_by(Country) %>% 
  summarise(mean=mean(Liver_Cancer_Death, na.rm = TRUE), count=sum(!is.na(Liver_Cancer_Death))) %>%
  arrange(desc(mean))

## # A tibble: 273 x 3
##             Country  mean count
##               <chr> <dbl> <int>
##  1         Mongolia 140.6     1
##  2       Mozambique 120.2     1
##  3           Rwanda  63.8     1
##  4           Gambia  61.4     1
##  5         Cameroon  53.7     1
##  6            China  48.6     1
##  7           Guinea  47.6     1
##  8 Congo, Dem. Rep.  46.0     1
##  9      North Korea  44.5     1
## 10          Senegal  43.9     1
## # ... with 263 more rows
…
# Show the mean of lung cancer deaths per 100,000 male of each country from 1950 to 2002
paste("The Mean of Lung Cancer Deaths Per 100,000 Male By Country from 1950 to 2002")

## [1] "The Mean of Lung Cancer Deaths Per 100,000 Male By Country from 1950 to 2002"

lung_cancer_death_male_year_as_row %>% 
  group_by(Country) %>% 
  summarise(mean=mean(Lung_Cancer_Death_Male, na.rm = TRUE), count=sum(!is.na(Lung_Cancer_Death_Male))) %>%
  arrange(desc(mean))

## # A tibble: 273 x 3
##            Country     mean count
##              <chr>    <dbl> <int>
##  1  Czech Republic 69.75176    17
##  2          Russia 66.12522    23
##  3         Estonia 65.04000    20
##  4         Croatia 62.44500    18
##  5      Luxembourg 62.19778    36
##  6         Belgium 61.47533    45
##  7 Slovak Republic 61.44545    11
##  8      Kazakhstan 61.19500    20
##  9          Latvia 60.85391    23
## 10  United Kingdom 60.20868    53
## # ... with 263 more rows
…
# Show the mean of lung cancer deaths per 100,000 female of each country from 1950 to 2002
paste("The Mean of Lung Cancer Deaths Per 100,000 Female By Country from 1950 to 2002")

## [1] "The Mean of Lung Cancer Deaths Per 100,000 Female By Country from 1950 to 2002"

lung_cancer_death_female_year_as_row %>% 
  group_by(Country) %>% 
  summarise(mean=mean(Lung_Cancer_Death_Female, na.rm = TRUE), count=sum(!is.na(Lung_Cancer_Death_Female))) %>%
  arrange(desc(mean))

## # A tibble: 273 x 3
##             Country     mean count
##               <chr>    <dbl> <int>
##  1 Hong Kong, China 20.23256    43
##  2            China 16.30000     1
##  3          Iceland 14.84314    51
##  4          Denmark 14.70596    52
##  5   United Kingdom 14.66642    53
##  6    United States 14.54019    53
##  7        Singapore 14.46550    40
##  8             Guam 14.20000     1
##  9             Cuba 13.35722    36
## 10         Mongolia 13.00000     1
## # ... with 263 more rows
…
# Print lung_cancer_death_year_as_row
# lung_cancer_death_year_as_row

# Show the mean of lung cancer deaths per 100,000 person of each country from 1950 to 2002
paste("The Mean of Lung Cancer Deaths Per 100,000 Person By Country from 1950 to 2002")

## [1] "The Mean of Lung Cancer Deaths Per 100,000 Person By Country from 1950 to 2002"

lung_cancer_death_year_as_row %>% 
  group_by(Country) %>% 
  summarise(mean=mean(Lung_Cancer_Death, na.rm = TRUE), count=sum(!is.na(Lung_Cancer_Death))) %>%
  arrange(desc(mean))

## # A tibble: 273 x 3
##            Country     mean count
##              <chr>    <dbl> <int>
##  1  Czech Republic 80.59412    17
##  2         Belgium 80.00000     1
##  3  United Kingdom 74.87509    53
##  4          Russia 72.86087    23
##  5         Estonia 72.34100    20
##  6         Croatia 71.03056    18
##  7      Luxembourg 69.80028    36
##  8      Kazakhstan 69.71300    20
##  9 Slovak Republic 68.82364    11
## 10         Hungary 67.55958    48
## # ... with 263 more rows
…
# Show the mean of prostate cancer deaths per 100,000 male of each country from 1950 to 2002
paste("The Mean of Prostate Cancer Deaths Per 100,000 Male By Country from 1950 to 2002")

## [1] "The Mean of Prostate Cancer Deaths Per 100,000 Male By Country from 1950 to 2002"

prostate_cancer_death_year_as_row %>% 
  group_by(Country) %>% 
  summarise(mean=mean(Prostate_Cancer_Death, na.rm = TRUE), count=sum(!is.na(Prostate_Cancer_Death))) %>%
  arrange(desc(mean))

## # A tibble: 273 x 3
##             Country     mean count
##               <chr>    <dbl> <int>
##  1          Bahamas 35.60000     1
##  2           Uganda 32.50000     1
##  3         Barbados 28.35132    38
##  4           Cyprus 28.20000     1
##  5         Botswana 25.80000     1
##  6 Congo, Dem. Rep. 25.20000     1
##  7         Zimbabwe 23.50000     1
##  8           Guyana 23.30000     1
##  9      Puerto Rico 23.00000     1
## 10             Peru 22.70000     1
## # ... with 263 more rows
…
# Show the mean of stomach cancer deaths per 100,000 male of each country from 1950 to 2002
paste("The Mean of Stomach Cancer Deaths Per 100,000 Male By Country from 1950 to 2002")

## [1] "The Mean of Stomach Cancer Deaths Per 100,000 Male By Country from 1950 to 2002"

stomach_cancer_death_male_year_as_row %>% 
  group_by(Country) %>% 
  summarise(mean=mean(Stomach_Cancer_Death_Male, na.rm = TRUE), count=sum(!is.na(Stomach_Cancer_Death_Male))) %>%
  arrange(desc(mean))

## # A tibble: 273 x 3
##           Country     mean count
##             <chr>    <dbl> <int>
##  1          Japan 51.59566    53
##  2          Chile 45.89604    48
##  3    South Korea 44.34000    18
##  4         Russia 40.35913    23
##  5    North Korea 37.10000     1
##  6     Costa Rica 35.93833    42
##  7        Belarus 35.92632    19
##  8     Kazakhstan 35.54850    20
##  9 Czechoslovakia 33.98718    39
## 10        Iceland 33.65615    52
## # ... with 263 more rows
…
# Show the mean of stomach cancer deaths per 100,000 female of each country from 1950 to 2002
paste("The Mean of Stomach Cancer Deaths Per 100,000 Female By Country from 1950 to 2002")

## [1] "The Mean of Stomach Cancer Deaths Per 100,000 Female By Country from 1950 to 2002"

stomach_cancer_death_female_year_as_row %>% 
  group_by(Country) %>% 
  summarise(mean=mean(Stomach_Cancer_Death_Female, na.rm = TRUE), count=sum(!is.na(Stomach_Cancer_Death_Female))) %>%
  arrange(desc(mean))

## # A tibble: 273 x 3
##             Country     mean count
##               <chr>    <dbl> <int>
##  1            Japan 25.77755    53
##  2             Peru 24.10000     1
##  3            Chile 23.38979    48
##  4         Mongolia 19.40000     1
##  5      South Korea 18.72778    18
##  6       Costa Rica 18.51881    42
##  7             Mali 18.30000     1
##  8   Czechoslovakia 17.37077    39
##  9           Russia 17.01043    23
## 10 Congo, Dem. Rep. 16.80000     1
## # ... with 263 more rows
…
# Print stomach_cancer_death_year_as_row
# stomach_cancer_death_year_as_row

# Show the mean of stomach cancer deaths per 100,000 person of each country from 1950 to 2002
paste("The Mean of Stomach Cancer Deaths Per 100,000 Person By Country from 1950 to 2002")

## [1] "The Mean of Stomach Cancer Deaths Per 100,000 Person By Country from 1950 to 2002"

stomach_cancer_death_year_as_row %>% 
  group_by(Country) %>% 
  summarise(mean=mean(Stomach_Cancer_Death, na.rm = TRUE), count=sum(!is.na(Stomach_Cancer_Death))) %>%
  arrange(desc(mean))

## # A tibble: 273 x 3
##           Country     mean count
##             <chr>    <dbl> <int>
##  1          Japan 77.37321    53
##  2          Chile 69.28583    48
##  3    South Korea 63.06778    18
##  4         Russia 57.36957    23
##  5     Costa Rica 54.45714    42
##  6           Peru 53.60000     1
##  7       Mongolia 52.80000     1
##  8    North Korea 52.10000     1
##  9 Czechoslovakia 51.35795    39
## 10     Kazakhstan 50.93950    20
## # ... with 263 more rows
…
# Standard Deviation of stomach cancer deaths per 100,000 person
ipp_sd <- round(sd(stomach_cancer_death_year_as_row$Stomach_Cancer_Death, na.rm = TRUE), 2)
paste("The Standard Deviation of Stomach Cancer Deaths Per 100,000 Person Is ", ipp_sd, ".")

## [1] "The Standard Deviation of Stomach Cancer Deaths Per 100,000 Person Is  19.61 ."

# Join income_pp_year_as_row and life_expectancy_year_as_row

income_vs_life_expectancy <- inner_join(income_pp_year_as_row, life_expectancy_year_as_row)

## Joining, by = c("Country", "Year")

income_vs_life_expectancy

## # A tibble: 14,040 x 4
##                  Country  Year Income_per_person Life_Expectancy
##                    <chr> <chr>             <dbl>           <dbl>
##  1              Abkhazia  1960                NA              NA
##  2           Afghanistan  1960                NA           31.94
##  3 Akrotiri and Dhekelia  1960                NA              NA
##  4               Albania  1960                NA           62.87
##  5               Algeria  1960          1280.385           47.50
##  6        American Samoa  1960                NA              NA
##  7               Andorra  1960                NA              NA
##  8                Angola  1960                NA           35.98
##  9              Anguilla  1960                NA              NA
## 10   Antigua and Barbuda  1960                NA           62.97
## # ... with 14,030 more rows

# Join total_health_spending_pp_year_as_row and government_health_spending_pp_year_as_row

total_n_gov_health_spending <- inner_join(total_health_spending_pp_year_as_row, government_health_spending_pp_year_as_row)

## Joining, by = c("Country", "Year")

total_n_gov_health_spending

## # A tibble: 4,368 x 4
##                  Country  Year Total_Health_Spending_Per_Person
##                    <chr> <chr>                            <dbl>
##  1              Abkhazia  1995                               NA
##  2           Afghanistan  1995                               NA
##  3 Akrotiri and Dhekelia  1995                               NA
##  4               Albania  1995                         27.91081
##  5               Algeria  1995                         62.05554
##  6        American Samoa  1995                               NA
##  7               Andorra  1995                       1392.17825
##  8                Angola  1995                         15.56839
##  9              Anguilla  1995                               NA
## 10   Antigua and Barbuda  1995                        350.71930
## # ... with 4,358 more rows, and 1 more variables:
## #   Government_Health_Spending_Per_Person <dbl>

# Join income_vs_life_expectancy and total_n_gov_health_spending

income_vs_life_vs_spending <- inner_join(income_vs_life_expectancy, total_n_gov_health_spending)

## Joining, by = c("Country", "Year")

income_vs_life_vs_spending

## # A tibble: 4,320 x 6
##                  Country  Year Income_per_person Life_Expectancy
##                    <chr> <chr>             <dbl>           <dbl>
##  1              Abkhazia  1995                NA              NA
##  2           Afghanistan  1995                NA            49.4
##  3 Akrotiri and Dhekelia  1995                NA              NA
##  4               Albania  1995          899.7829            73.7
##  5               Algeria  1995         1660.0042            71.6
##  6        American Samoa  1995                NA            70.6
##  7               Andorra  1995        14125.5934            82.6
##  8                Angola  1995          251.8980            50.9
##  9              Anguilla  1995                NA              NA
## 10   Antigua and Barbuda  1995         9466.0953            73.5
## # ... with 4,310 more rows, and 2 more variables:
## #   Total_Health_Spending_Per_Person <dbl>,
## #   Government_Health_Spending_Per_Person <dbl>
…
